<svg mapsvg:geoViewBox="-85.951112 11.216982 -82.555690 8.032245" version="1.1" viewBox="0 0 500 473" xmlns="http://www.w3.org/2000/svg">
	<path title="Alajuela" d="m187 20.6 10.3 6.03 5.23-1.71 0.788 1.84 0.695 0.888 2.9 1.25 5.14 1.78 2.85 1.58 4.97 5.43 2.13 1.17 1.1 0.263 0.942-0.0232 1.04-0.363 1.05-0.734 1.17-1.26 0.695-0.363 3.03-0.726 2.2-2.2 0.378-0.201 0.417 0.178 0.618 0.633 1.38 2.27-0.0309 0.749-0.571 1.63-0.487 0.757 0.0849 0.788 1.47 1 0.958 1.88 0.51 1.43 0.741 0.757 1.48-0.0772 1.57 0.224 0.981 0.409 0.68 0.595 0.958 1.31 0.0927 0.78 0.487 0.402h1.07l3.06 0.649 0.78 0.309 1.07 1.1 2.5 0.842 0.626 0.78 0.363 1.07-0.394 0.888 0.471 1.1 0.185 0.981-0.641 1.07 0.0232 0.795-0.502 0.487-2.18 0.641 0.286 0.904 1.07 0.51 0.378 0.795 1.77 0.417 1.27 0.811 0.178 1.09 0.68 1.09 0.896-0.873 0.695-0.386 0.981 0.0155 1.45 0.564 1.8-0.317 1.05 0.0154-1.03 29.9 0.0772 25.3-0.0927 18.7-0.309 17.4 0.695 11.2-0.0386 3.84-1.05 2.21 8e-3 2.05-1.02 3.54-0.842 1.76-2.25 1.98 1.07 3.41-1.74-0.0849-2.19 0.996-1.52 1.33-1.07 1.24-2.14 1.66-2.5 0.965-5.85 0.471-3.61 1.17-3.6 0.139-2.43-1.49-2.02-0.525-3.64-0.0309-0.0849 0.224-5.96 1.23-2.05-0.116-2.1 1.34-0.819 0.873-2.11 0.988-1.22 0.88-2.33 2.34-2.03 0.587-1.68 2.19-0.371 1.21-2.09 3.22-1.92 0.0232-1.27-0.942-1.58-0.718-0.78-1-0.27-1.95-2.24-0.602-2.18-0.124-2.66 0.116-3.75-0.656-1.16-1.88 0.201-2.68 1.07-1.37 1.81-0.587 1.76-3.79 1.25-1.41 2.4-0.0618 2.3-0.201 1.89-2.5 2.29-2.15 3.34-1.25 0.734-2.61-0.34-2.75-2.29-2.31-2.72-0.324-5.2-0.0849-0.587-1.85-0.517-2.97-2.12-0.973-0.88-1.49-2.3-4.66-0.0232-2.46-0.239-3.96 0.301-2.02-1.71-1.16 1.17-2.49 1.2-1.86 1.21-2.93-0.834-2.92-1.82-1.92-1.52-1.92-1.52-0.541-2.25 0.726-1.97 1.22-3.21 1.11-4.93-3.44-2.59-3.77 1.85-3.06 1.07-3.41 0.873-0.564-1.95-2.98 0.618-5.33 0.0695-2.5 2.31-0.0618 3.38 0.224 0.741-0.332-0.463-0.795 0.0232-0.981-0.332-0.834-0.958-0.734-1.37-8e-3 -1.71-2.36-2.61 0.247-0.139-1.83 0.0463-1.74-2.36-0.34-2.35-1.45-3.12-2.1-3.51-3.75-4.19-2.29-5.99-0.0618-1.75-2.59-2.37-2.25-2.53-1.67-3.16-3.89-1.34-3.49-0.201-2.45-0.95-2.56-0.487-1.64-1.75-0.618-1.93-1.02-3.79-0.656-1.89-1.11-1.97-0.525-1.9 0.409-2.32-0.116-1.51-0.363-2.81-3.85-2.8-1.8-2.81-0.68-2.9-0.193-3.89 0.425-4.6 0.749-2.8-0.239-1.5-1.38-1.49-4.39-0.108-2.5-2.44-1.49-4.84-1.88-2.46-2.21-1.26-2.33-0.811-2.09-0.633-2.08-1.42-1.8-4.09-6.77 0.896-1.5 1.98-0.456 2.9-1.33 2-1.75 0.633-1.14 1.36-4.24 0.95-1.05 3.55-0.0541 1.52-1.16 1.47 8e-3 2.34 2.88 2.39 1.68 1.78 0.0386 0.517-2.39 0.309-3.5 0.826-3.22 1.9 0.873 5.85 3.11 32.1 11.6 11 4.59 17.6-10.3 16.7-10.3z"/>
	<path title="Cartago" d="m296 159 19.2 10.3 4.51 2.56 10.1 4.22 15.1 7.17 24.6 0.131 19.5-0.131-0.896 1.36-1.98 0.942-0.71 1.63 0.0463 1.64-2.08 0.417 0.0849 3.24 0.61 3.06 1.09 2.56 0.0386 3.38-0.278 1.03 1.14 2.95-2.81 3.15-5.74 7.95-1.95 2.19-1.68 2.13-1.44 2.49-0.131 3.65-0.934 3.14-3.17 3.02-2.74 2.09-8.07 7.43 0.981 1.62 1.04 2.64 0.27 1.99-0.255 2.1 0.533 1.63 0.718 2.87-3.28-1.51-4.81-4.1-2.07-0.834-2.77-0.68-3.65-2.26-1.53-0.71-1.75-2.05-1.84-0.664-1.59 0.224-1.09 0.919-0.849 1.63-2.36 1.54-1.84-0.888-3.05 0.749-1.75-0.44-0.664-1.63-2.18-0.0695-1.08-0.687-0.641-2.25 0.448-1.92-1.37 0.17-2.12-0.865-1.78-0.487-1.67-0.795-2.23-0.479-1.9-1.41-0.811-2.07 0.0154-2.81-0.649-1.14-2.5-0.425-0.741 0.425-1.61-0.224-1.17-0.595-2.23-2.21-1.32 0.664-0.765-0.386-0.471-1.01-1.58-1.02-1.56-0.139-0.556-0.826 0.185-1.47-0.108-2.27-3.72-1.64-1.76-2.71-1.38-3.61-1.1 0.471-3.93 2.38-1.87 0.1-2.56 0.602-2.4-0.154-1.58-0.803 0.672-1.41-0.232-2.04 0.88-0.201 2.76-1.37 2.87-2.18 1.54-0.842 0.409-1.3 2.09-3.14 0.78-0.911 0.672-1.31 0.633-1.35 0.0154-1.2-0.734-0.826-1.47-0.0463-2.43 0.332 0.209-2.19 2.18-1.53 1.85-2.19 0.162-2.32 1.01-0.556 6.37-0.842 2.19 0.425 2.65-0.517 1.52-1.29 1.25-1.37 1.34 0.409 1.08 0.463 2.64-0.834 0.68-1.36-1.03-2.15-0.425-2.57-0.108-2.45-1.08-2.25-2.32-2.12-3.05-1.17-1.64-1.38-1.7-7.35z"/>
	<path title="Guanacaste" d="m5.27 54.1 0.471 0.996-0.757 0.131-0.479-0.517-0.687 0.1-0.239-0.278 0.857-0.201 0.309-0.27zm58.1-46 15.6 5.73 8.4-0.0309 8.83 4.56 5.64 2.59-0.819 3.22-0.309 3.5-0.517 2.39-1.78-0.0386-2.39-1.68-2.34-2.89-1.47-8e-3 -1.52 1.16-3.55 0.054-0.95 1.06-1.35 4.24-0.633 1.14-2 1.75-2.9 1.33-1.98 0.456-0.896 1.5 4.09 6.77 1.42 1.79 0.633 2.09 0.811 2.08 1.26 2.33 2.46 2.22 4.84 1.88 2.44 1.5 0.108 2.5 1.49 4.39 1.51 1.39 2.8 0.239 4.6-0.749 3.9-0.417 2.89 0.185 2.82 0.687 2.8 1.8 2.81 3.85 1.52 0.363 2.31 0.116 1.9-0.409 1.97 0.525 1.89 1.11 3.79 0.656 1.94 1.02 1.75 0.626 0.487 1.64 0.958 2.56 0.201 2.45 1.34 3.49 3.17 3.89 2.53 1.68 2.36 2.25 1.75 2.59 5.99 0.0618 4.19 2.29 3.51 3.75 3.12 2.1 2.35 1.45 2.36 0.34-0.0463 1.74 0.139 1.82-2.02 0.857-2.18-0.116-4.24-4.22-1.38-2.02-2.99-2.29-2.34-1.32-2.23-0.34-0.0386-1.38 0.201-0.765-0.548-0.61-0.703 0.378-2.33-1.05-0.363 1.48-1.5 0.533-0.911-0.78-2.32-0.247-0.293 0.811-0.842 0.116-2-0.124 3.91 3.42 2.72 2.12 1.34 0.278-0.124-1.34 1.78 0.309 1.78 2.01 2.52 1.27 2.46 0.471 1.88 0.525 2.12 1.51 0.301 2.98 3.39 0.533 3.37 1.42 2.56 1.23-0.0695 2.5-0.618 5.33 1.95 2.98-0.873 0.556-1.07 3.42-1.85 3.05-2.46-2.03-3.36-0.981-2.63 1.23-2.4 3.28-0.795 3.41-0.216 1.92-2.57 6.85 0.811 5.34-3 0.749-3.21 2.94 0.564 2.93-1.87 3.35-1.95 0.0541-3.2-1.92-7.77-3.09-3.42-1.87-2.84 0.0772 0.502 5.41-1.46-0.263-0.301-0.409 0.0695-0.378-1.18-1.38-1.63-1.25 0.178-0.61 0.749 0.147 0.51 0.487 1.09 0.216 0.409-0.232 0.178-0.371-0.371-0.888-0.927 0.363-2.69-0.95-0.78-0.626-0.988-0.178-2.23 0.934-0.904 1.15-1.1 0.263-0.409-0.417-0.68-0.108-0.541-0.348-1.06 0.124-1.57-0.834-1.88-0.293-0.448 0.232-1.3-0.355-0.88-0.456-1.13-0.255-1.16-0.765-1.22-1.17-0.293-1.54-0.873-1.85 0.548-0.301 0.317-1.09-0.162-1.03-0.942-1.54-1.12-1.1-0.1-0.618-0.919-0.348-0.849-0.726-2.21-1.22-1.43-0.494-0.61-0.626 0.873-1.7-0.0618-0.687-2.3-2.32-0.819-0.247-0.641-0.587-0.432-1.1-1.15-1.03-4.17-0.108-0.618 0.162-0.795 0.741-1.02-0.765-1.13 0.0541 0.95 0.587 0.61 0.865 0.51 0.139 0.618-0.44 1.13 0.286 1.85-0.873 0.687-0.0232 1.33 0.556 1.15 1.24 0.873 1.41 1.87 1.18 0.371 0.718-0.0077 0.548-0.525 1.4 0.162 1.17 0.44 0.517 1.64 0.355 1.22 0.695 3.12 2.66 0.394 1.85-0.355 0.988-0.085 2.05 0.394 1.48-0.417 0.811 0.255 1.81-0.178 0.371-0.479 0.232-0.108 0.68 1.02 3.98 1.71 2.85-1.86-1.69-0.919-0.147-0.17-0.239-0.988 0.0232-0.51-0.618-2.84 0.656-0.896 0.95 0.548 0.348 0.618-0.849 0.819 0.0386 0.541 0.687-0.656 0.402-0.487 0.641 0.17 0.34 0.409-0.0309 1.27-1.11 0.0695-0.409-0.27-0.479 0.448-0.131 0.579 0.378 1.85 0.0541 0.78 0.517 0.301 0.718-0.139 0.309-0.857 0.162 0.919 0.556 0.17 0.479-0.726 0.811 0.394 1.27 0.448-0.44 1.66 1.72 1.05 0.765 3.27 1.37 0.749 0.695 0.432 1.37 0.849 0.386 1.17 1.79 1.6 0.834 0.849 8e-3 0.517-0.541 0.301 0.479-0.147 1.4-0.278 0.479-0.51-0.0695-0.811-0.795-1.51-0.116-0.749-0.448-0.88-0.826-0.602-1.14-0.726 0.68-0.479-0.108-0.378 0.301 0.571 0.587 0.927-0.0927 0.772 1.41 0.649 0.147 0.471 0.826 1.03-0.263 0.602 1.03 0.34 0.0386 0.208 0.417-0.672 0.934-1.23 3.92-1.73 1.74-1.77 0.402-2.8-0.239-0.819 0.873-3.23 0.664-2.15 0.68-2.97 0.348-2.34 2.25 0.0154 2.23 1.58 1.2 3.17 0.718 2.81 0.371 3.45 1.2 3.41 6.1 3.21 0.448-1.05 2.25-1.24 2.09-0.734 2.42 0.548 3.91-1.72 3.79-2.17 1.88-1.92 2.59-0.695-0.734-2.2-1.69-2.68-1.39-0.0309-0.579 0.409-0.402 0.178-0.68-0.865-2.29-4-3.11-1.36-0.765-1.6-0.525-1.67-0.255-0.0232-0.749-1.18-1-3.36-2.05-1.43-0.255-2.38-1.15-1.4-0.425-0.548 0.0309-0.417 0.849-1.3-0.147-1.7-0.703-0.71-0.757-0.749-0.386-1.54-0.255-1.95 0.293-0.456 1.26-0.417 0.34-0.618-0.0386-2.72-1.56-0.263-0.958-0.471-0.309-1.47 0.942-0.718-0.108-0.278 0.409-0.371-0.108-0.124-1.27-1.49-1.21-0.618-0.0695-1.34 0.672-1.57-0.0154-1.94-0.734-1.61 0.432-0.88-0.626-1.6-0.185-1.36-1.17-1.34 0.263-0.919-0.216-2.32 0.0154-0.541-0.348-0.162-1.03-0.749-0.656-1.09-0.317-0.958 0.0618-0.548 0.301 0.0309 0.479-0.239 0.371-2.14-1.07 0.309-0.649 0.448-0.201 0.209-0.649-0.324-2.12-0.602-1.27-1.05-1.44 0.139-0.548-0.942-1.85-2.94-3.68-0.432-0.958-1.09-0.996-1.06-0.587-2.85-2.96-0.811-1.17-0.533-2.02-0.402-0.687-1.83-1.59-0.27-0.649-0.371-0.139-0.672-1.1-2.2-2.79-0.0541-1.54-0.88-0.965-1.06-4.49-0.95-1.17-0.0927-1.06-1.68-3.71-2.33-3.17 0.108-0.857-0.363-1.51 0.0463-1.37-1.71-3.78-0.124-1.51 0.456-1.5-0.834-2.95 1.83-1.66 0.687-1.06-0.602-1.75-0.811-1.34-1.22-1.27-0.471-0.826-0.718-0.247-0.34-0.448-0.378 0.17-0.51-0.517-0.378-0.0386-0.0618-0.479 0.556-1.33 0.996-0.71 0.51-0.0309 0.471 0.517 0.417-0.71 0.618 0.0695 0.348-0.51 0.286-1.2 0.517-0.301 1.29-2.63 0.448-0.1 0.378-0.44 0.487-1.2 0.409 0.139 0.301 0.687 1.71 0.286 0.579-0.301 0.556-0.61 0.842-3-0.394-1.98 0.958 0.108 0.371 0.718 0.896-0.471 0.765-1.16 0.147-1.16-0.51-0.487-0.293-1.98-1.13-0.726 0.178-0.409-0.34-0.278-0.687-0.108-0.371-0.378-0.0232-1.24-0.78-0.826 0.587-0.579-0.44-0.857-1.06-0.726 0.0695-0.309 2.29-0.394 0.456-0.849 0.618-0.44-0.0618-0.548 0.448-0.61-0.0309-0.27 0.896-0.68 0.988 0.317 0.718-0.131 0.371 0.896 0.919 0.795 0.996-0.0309 2.79-2.34 1.71-0.633 1.38-1.32 0.1 0.309 0.61 0.417 0.618-0.0309 0.865-1.12-0.139-0.309 0.139-0.34-0.571-1.1 0.1-0.239 1.58-0.124 1.14-0.502 0.417-0.409-0.263-1.24 0.278-0.409 1.16 0.116 0.348-0.479 1.68 0.324 0.417-0.34 0.317-0.68 0.178-1.16 1.03 0.178 0.286-1.4 0.556-0.51 0.857-0.332 0.216-1.2-0.185-0.541-0.51-0.517-2.9-1.02-0.687 0.27-1.03 0.919-1.51 0.293-0.0154 1.71-0.548 0.232-0.348 1.03-1.27 0.363-0.309 0.51-0.857-0.317-0.0618-0.309 1.31-0.772 0.386-1.23-0.579-0.417 0.487-0.919 0.34 0.0386 0.317-0.51 0.749 0.0386 0.556-0.888-0.1-0.278-0.649-0.278-0.618 0.0309 0.626-0.78 0.749-0.0618 0.456-0.919-0.371-0.517 0.108-0.309 1.1 0.286 1.68-1.11 0.247-0.579-1.12-5.28-0.757-2.02 0.371-1.14-0.193-1.54 0.741-2.42 0.0772-0.958-0.981-1.48-1.67-1.56-0.68-0.996-0.703-1.71-2.09 0.185-0.641-0.795-1.07 0.0618-0.51-0.517-0.579-0.0772-1.31 0.232-1.3-0.834-1.2-8e-3 -0.904 0.0849-0.996 0.502-0.904 1.33-1.84-1.11-2.12-0.664-0.687 0.0309-0.27-0.896-0.402-0.687-0.517-0.378-0.27-0.656 0.147-1.06 2.19 0.463 0.108-0.618-0.911-1.79-1.92 0.533-1.13-0.0772-1.85-0.803-3.95-0.0927-1.07-2.66-0.51-0.417-1.81-0.533-3.96-1.71-0.78-0.656-1.3-0.487-0.788 0.0309-0.548 0.409-2.47 0.633-0.788-0.278 1.41-0.849 1.95-0.394 1.31-0.672 0.517-0.541 2.19-0.324 0.896-0.471 1.31-0.162 0.448-0.301 0.309-0.579 1.75-0.363 0.803-1.61-0.61-0.757-2.32-1.25 1.61-0.0232 0.417-0.239 4.11 0.757 0.548-0.409 1.07 0.0772 0.849 0.556 0.548-0.131 0.95 1 0.0618 0.479-0.687 0.579 0.332 1.54 0.44 0.417 0.958 0.108 0.95 0.865 1.31 0.0772 0.548-0.34 0.139-0.479-0.17-0.517-1.16-1.21 0.108-0.378 0.757 8e-3 0.595-1.06 0.649 0.278 0.278-0.448 1.37-0.0927 0.517 0.178 0.34 0.788 0.757-0.61 1.34 0.185 0.487-0.44 0.958-0.0232 0.788 0.247 0.51 0.448 0.348-0.239 0.618 0.0772 0.409 0.587-0.178 0.649 0.68 0.556 0.749 0.108 0.348-0.371 0.0154-1.47 0.965-0.301 0.348-0.61-0.201-0.548-2.21-1.15 0.34-0.718 1.27 0.247 0.247-0.749 0.587-0.27 1.24-0.0618 0.556-0.61 0.147-1.06-0.301-0.687-0.61-0.517-1.75-0.904-2.3-2.7-0.548-0.317-1.1-0.108-0.78-0.587-1.23-0.525-1.26-1.55 1.14-1.57 1.17 8e-3 0.178-0.34-0.371-0.548 0.0695-0.34 0.548-0.34 0.927 0.147 0.348-0.309 1.36 1.24 0.201 0.757 0.27 0.239 3.22 0.61 1.27-0.371 0.795-0.71 0.857-0.301 0.456-0.649 0.178-0.649-0.324-2.51-0.88-0.934-0.749-0.278-0.888-0.896-1.23 0.0541 2.45-4.42 2.48-3.83 0.595-1.35 5.13-8.16 0.641-1.2 0.471-1.84 0.579-0.487 0.687-0.0309 6.39 0.981 1.12 0.301 1.11 1.1 2.84 3.65 0.88 1.56z"/>
	<path title="Heredia" d="m285 64.6 1.19 1.89 0.417 0.973 1.73 0.927 0.525 0.548 0.602 0.386 0.95 0.286 0.834 0.51 0.293 0.502 0.185 1.25 0.741 0.788 1.29 0.402 1.71 0.293 0.68 0.355 0.293 0.579 0.108 0.571 0.672 0.888 1.1 0.131 1.27-0.363 1.77-0.695 0.965-0.896 2.63 0.154 1.03 0.324 1.41-0.131 0.896-0.942 1.18-0.726 0.842-0.873 0.502-1.07 1.15-0.517 0.571-0.0695 2.44 0.193 1.63-1.38 1.29-1.7 0.425-0.371 1.14 0.147 2.94-0.0772 0.842-0.34 2.27 1.06-0.224 1.57-0.456 1.4 2.46 2.21 1.72 1.34 1.1 1.04 0.896 2.03-4.04 0.0232-4.85-0.178-1.78 1.7-1.81 0.409-1.64 0.0849-1.59 1.88-1.2 1.91-2.13-0.124-1.1 2.36-0.324 4.56 0.479 1.28 1.28 1.61-1.88 4.34-0.0541 2.95 1.93 4.41 0.942 3.77-1.12 3.07 0.494 1.78-1.66 1.11-2.32-0.0232-2.73 4-0.386 2.15 1.39 3.93 2.16 2.84 0.718 4.04 0.247 4.36-1.14 2.36-1.61 2.72-1.15 3.82-1.23 2.09-1.58 2.32-1.64 1.96-2.83 1.95-7.11 4.83-1.29 1.68 0.0927 1.96-0.224 5.04-1.25 1.59-1.76 0.402-2.62 0.162-0.633 1.27-0.1 1.3-0.371 0.942 0.834 1.5 1.85 2.66-0.386 2.24-0.788 2.21-1.89 2.19-2.36 1.41-2.24 0.911-2.22-0.0309-0.873 0.471-1.81 0.27-2.78 0.834-0.68-0.425-2.22-0.301-2.69 0.927-1.87-0.178-0.71-0.154-0.988-0.425-1.7-0.44-1.07-3.41 2.25-1.98 0.842-1.76 1.02-3.54-8e-3 -2.05 1.05-2.21 0.0386-3.84-0.695-11.2 0.309-17.4 0.0927-18.7-0.0772-25.3 1.03-29.9 0.919 0.0155 2.41-0.332 0.95 2.68 1.33 0.286 1.54-0.95 0.626-0.0309 0.973 0.224 2.36 1.31 1.48 0.1 0.904-0.255 0.417-1.38 0.695-0.703 0.626-0.178 0.664 0.139 1.37 0.602 0.139-1.03 0.324-0.834 0.494-0.255 1.03 0.0541z"/>
	<path title="Limón" d="m345 54.8 1.07 4.47 1.75 4.9-2.83 0.448-0.888-2.68-0.734-2.83-1.33-2.83-1.03 2.53 0.88 2.68 1.18 2.98 0.734 2.83-0.147 2.98-1.33 2.39-2.5 1.04 2.95-0.448 1.92-2.23 1.03 2.68 0.741-2.68 1.72-4.24 0.239 1.98 1.37 4.27-0.232 0.394 0.286 0.919 0.201-0.0772 1.75 4.28 1.04 3.24 3.14 7.04 0.324 1.27 1.4 2.69 0.116 1.37-0.27 1.71 2.11 5.1 0.533 1.03 0.147-0.61-2.16-5.92 0.278-0.541 2.8 6.58 0.502 0.765 0.487 1.89 0.849 2.13 1.64 2.49 2.66 5.07 2.83 4.42 1.66 3.38 1.31 1.39 3.85 5.4 1.46 2.59 3.68 3.65-0.0463 0.68-0.579-0.108-0.741-0.664-0.44-0.124 0.0232 0.456 2.26 1.58 0.178-0.579 0.641 0.556 4.76 5.9 3.54 5.22 0.263 0.788 0.432 0.556-0.0386 0.448 0.904 0.973 0.795 1.31 0.131 0.556-0.494 1.33 0.0463 0.363 0.788-0.402 0.301 0.1 0.124-0.27-0.487-1.44-1.42-2.92 0.317-0.371 0.602 0.556 1.84 2.77 5.39 6.38 0.232 0.556-0.27-0.0386-0.278 0.301 0.363 0.548 0.517 1.75 0.541 0.386 0.517-0.0618-0.803-1.24 0.178-0.571 3.54 4.12 0.348 0.224 0.803 1.45 0.834 0.757 0.865 1.38 2.42 2.29 7.07 9.66 0.772 0.865 2.31 1.07 0.749-0.286 0.564-0.741 0.517-0.301 0.919-0.0154 1.04-0.664 0.51 8e-3 0.873 0.803 1.03-0.463 2.13 1.03 0.78 0.703-0.185 0.749 0.263 0.587-0.502 1.42 0.0463 0.888 3.08 5.39 2.76 2.71 0.726 1-0.108 0.34-0.618 0.363 0.131 0.239 1.29 0.44 1.47 1.97 6.68 8.25 2.79 4.26 4.02 4.51 2.63 3.81 1.39 0.602 1.17 1.15 1.36 0.301 1.5-8e-3 1.7-1.37 0.579 0.147 0.301 0.448-1.13 1.48-0.162 1.5 0.602 0.695 2.24 4.48 0.517 1.54 1.14 0.672 0.394 1.17 0.934 0.834 2.72 0.703 1.17-0.487 0.548 0.108 2.97 1.66 1.03 0.0232 1.96 0.857 1.4 0.201 0.749-0.124 0.865-0.564 1.38 0.811 1.8 0.34 0.896-0.116 0.896-0.664 0.888 0.0154 1.28 0.71 0.896-0.293 0.88 0.0927 1 0.973-0.232 1.6 0.703 0.726 0.224 0.857 0.533 0.525 0.525 0.996 0.973 0.842 4.02 1.95 1.14 0.842 0.51 0.185 0.301 0.255 0.255 1.11 0.795 2.08-0.0772 0.71-1.17-0.0232-0.378-0.332-1.18-2.02-0.765-0.664-1.86-0.17-1.03 0.108-0.602 0.695-0.131 0.456 0.108 0.904 0.726 2.34-0.425 1.6-1.41 2.81-0.525 0.44-1.54-0.425-0.649-8e-3 -0.517 0.247-0.595 0.633-0.965-0.0232-0.765-0.726-0.803-1.69-0.386-8e-3 -1.04 0.687-0.788 0.757-0.494-1.24-0.765 0.17-0.278 0.232-2.01-8e-3 -0.44-0.317-0.0695-1.57-1.24-1.25 1.07-0.626 0.247-0.409-0.363-0.649-0.78-0.425-0.865-1.11-0.402 1.39-0.309 0.162-2.59-2.12 0.44-1.38-0.0618-0.317-1.74-0.363-0.487-1.3-0.44-0.332-1.22-0.479-1.48 0.0386-1.14-1.25-2.16-1.47-0.456-0.131-2.66 1.04-1.27-1.13-1.92-1.14-0.564-0.849-2.65 0.139-0.71 0.494-0.533-0.0386-0.317 0.541-0.371 1.57-1.76 1.23-0.564 2.89-0.633 0.734 0.471 0.386-0.0618 1.6 0.371 0.147 0.996-0.216 0.502 0.517-0.185 0.68 0.263 0.718-0.525 0.811 0.394 0.726-0.394 0.842 0.201 0.479 0.633 0.664 1.57-0.0772 0.232 0.386-0.765 0.734 0.131 0.209 0.409 0.0386 0.525-0.432 0.571 0.286 0.278 0.61 0.649-0.0309 0.216 0.71-0.301 0.348-2.66 0.765-9.03 1.88-1.65 0.556-0.301 0.348-0.209 4.75 0.0849 13.5 0.309 2.05 0.0154 34.5 0.17 3.34 0.332 0.826 0.386 0.255 0.317 1.75-3.85-1.14-1.99-1.5-1.54-2.94-1.51-8.49-2.12-1.14-4.46-0.772-3.14-0.849-0.239-0.795 0.471-2.42-1.83-3.68 0.263-1.7-0.525-3.01-1.97-0.703-3.88-2.03-3.2-1.47-2.06-0.703-3.18-4.5-2.22-1.94-2.89 0.255-2.51 0.649-2.46-0.556-1.94-2.76-1.22-0.765-3.66-0.703-2.18-1.72-1.64-1.78-2.97-1.57-2.11 0.988-0.556 0.772-0.247 2.46-0.726 1.13-1.61-0.355-1.33 0.124-2.32 1.09-1.48 1.2-0.355-1.81-1.37-1.39-2.64-0.996-3.48-2.51-3.09-6.32-1.56-3.74-1-4.6-2.46-2.2-0.718-2.87-0.533-1.63 0.255-2.1-0.27-1.99-1.04-2.64-0.981-1.62 8.07-7.43 2.74-2.09 3.17-3.02 0.934-3.14 0.131-3.65 1.44-2.49 1.68-2.13 1.95-2.19 5.74-7.95 2.81-3.15-1.14-2.95 0.278-1.03-0.0386-3.38-1.09-2.56-0.61-3.06-0.0849-3.24 2.08-0.417-0.0463-1.64 0.71-1.63 1.98-0.942 0.896-1.36-19.5 0.131-24.6-0.131-15.1-7.17-10.1-4.22-4.51-2.56-19.2-10.3 1.75-4.51 0.849-1.71 2.83-1.95 1.64-1.96 1.58-2.32 1.23-2.09 1.15-3.82 1.61-2.72 1.14-2.36-0.247-4.36-0.718-4.04-2.16-2.84-1.39-3.93 0.386-2.15 2.73-4 2.32 0.0232 1.66-1.11-0.494-1.78 1.12-3.07-0.942-3.77-1.93-4.41 0.0541-2.95 1.88-4.34-1.28-1.61-0.479-1.28 0.324-4.56 1.1-2.36 2.13 0.124 1.2-1.91 1.59-1.88 1.64-0.0849 1.81-0.409 1.78-1.7 4.85 0.178 4.04-0.0232-0.896-2.03-1.1-1.04-1.72-1.34-2.46-2.21 0.456-1.4 0.224-1.57-2.27-1.06 1.5-1.17 1.55-0.695 1.88-0.147 1-0.842 0.826-0.0849 1.37 0.564 2.59-0.502 1.24-0.633 1.62-2.41 0.34-1.54-1.38-4.02-0.0232-1.71 0.463-2.84-0.185-1.03-0.556-0.95-0.765-0.734 0.556-2.27-0.402-0.734-2.09-2.32-0.0386-0.571 0.162-0.301 1.6 0.348 1.5 0.502 3.07 2.76 2.49 2.85z"/>
	<path title="Puntarenas" d="m303 372-0.849 0.085-0.71-0.317-0.263-0.517 0.386-0.672 8e-3 -0.68 2.89 0.147 0.1 0.239-1 1.24zm39.4-32.3-0.517 0.232-0.27-0.239-0.533-2.8 0.718-0.363 0.51 0.247 0.626 1.44-0.154 0.988zm-0.463-5.24-0.664 0.942-0.579-0.0772-0.332-0.479 0.139-2.14-0.193-5.17-1.53-4.38 0.718-0.124 0.749 0.185 0.487 1.34-8e-3 0.579 0.988 2.29-0.263 1.56 0.0849 0.919 1.2 3.8-0.178 0.471zm-187-143-2.83 0.139-0.749-0.448-0.471-0.687 0.108-0.34 1.61-0.564 0.0695-0.44-0.301-0.448 2.49 0.332-0.154 1.71 0.502 0.587zm-24.5-8.54 1.7 1.32 0.27 0.479-2.76-0.1-0.896 0.811-0.61-0.247-0.402-0.927-0.919-0.626 8e-3 -0.409 0.517-0.301 1.2 0.0463 0.309-0.34zm8.94-0.579 2.25 0.842 1.54 0.185 0.741 0.656 0.587-0.0927 0.17 0.378-0.417 0.34-2.05-0.193-4.19-1.38-0.958 0.0541-0.1-0.309 0.788-0.332zm-3.27-0.139-0.378 0.301-2.97-0.749-0.579-0.417 0.139-0.371zm-13.2 2.96 0.61 0.556 1.4 0.185 1.03-0.741 1.1 0.0772 0.232 0.927 0.618-0.131 0.193 0.857 0.618-0.0618 1.03-1.25 0.757-0.332 0.649 8e-3 3.56 2.19 0.904 1.44 1.79 1.9 0.71 0.216 1.95-0.255 2.05 0.332 0.618-0.371 2.15-0.108 1.53 0.703 1.47 0.324 1.19 0.904 1.36 0.494 0.402 0.517-0.147 0.788 0.193 0.927 0.402 0.618-0.348 0.641-0.927 0.293-1.14 1.32-0.255 1.06 0.162 0.649 1.42 1.41 0.749-0.0232 0.263 0.649-0.0386 0.579 0.301 0.278 0.649-0.0927 0.61 0.726-0.239 0.301-1.16-0.147-1.55 1.45-0.108 0.44 0.27 0.587 1.18 0.973 0.95 0.355 0.68-0.0618 0.278-0.34 0.988-0.0927 0.687-0.402 1.19 0.286 0.888-0.124 2.01 0.533 0.0618 0.309-0.278 0.61-1.64 0.633-0.355 0.88-1.54 0.0541-0.757 0.193-0.239 0.301-0.425 1.29-0.487 0.571-2.57 0.687-0.178 0.34 0.402 0.788-1.29 2.2-0.355 1.16-0.479 0.27-1.4-0.185-0.348 0.34-0.51-0.139-0.556 1.39 0.463 1.41-8e-3 0.788-0.278 0.641-0.927 0.471-1.7-0.494-1.28-1.17-1.36-0.595-0.51-0.517-1.27 0.193-0.896 0.71-1.07 1.59-0.255 1.13 0.162 0.857 1.84 0.741 0.618 0.564 0.0927 0.502-0.795 1.32-1.2 0.803-2.39 0.626-0.718 0.402-1.03 1.32-2.02 0.765-2.08 2.46-1.3 3.23-0.0849 1.54-1.87 5.75-0.556 1.26-2.12 0.695-0.247 0.749 0.162 0.819-0.209 0.232-0.641-0.788-0.301-0.888-0.741-0.517-1.67-0.355-1.28-1.34-0.471-1.03-0.332-4.3-0.571-0.718-1.49-1.07-6.11-6.72-0.795-2.63-0.533-1.03-0.741-0.726-0.595-1.68-1.97-2.36 1.92-2.59 2.17-1.88 1.72-3.79-0.548-3.91 0.734-2.42 1.24-2.09 1.05-2.25-3.21-0.448-3.41-6.1-3.45-1.2-2.81-0.371-3.17-0.718-1.58-1.2-0.0154-2.23 2.34-2.25 2.97-0.348 2.15-0.68 3.23-0.664 0.819-0.873 2.8 0.239 1.77-0.402 1.73-1.74 1.23-3.92 0.672-0.934-0.209 0.371 0.71 0.865 1.29 0.595 2.98 2.66 1.74 0.394 0.232 0.958 0.471 0.587zm-5.97-20.9 0.718 0.0772 0.749-0.193 1.74 0.772 1.85 0.394 0.51 0.348 0.587-0.1 0.301 0.448-0.278 0.579-0.749 0.0618-1.19-0.556-0.587 0.34-3.99-0.726-0.741-0.934-0.209 0.1-0.139 0.409 0.571 0.896 0.68 0.348 0.857 0.0463 0.371 0.587 0.448-0.0309 0.378-0.44 0.479 0.247 0.51-0.1 0.819 0.216 0.772 1.03 0.409 0.247 0.888-0.162 0.927-0.571 1.33 0.0154 0.0618 0.51-0.386 0.68-0.718 0.332-0.0386 0.309-2.75 1.14-0.749-0.108-3.12 0.649-2.36-0.193-2.28-1.15-0.571-0.587-0.471-0.726-0.757-2.84-0.44-0.618 0.417-0.71 0.788 0.0386 2.2-1.03 1.54 0.154zm52.4-30.2 2.59 3.77 4.93 3.44 3.21-1.11 1.97-1.21 2.25-0.734 1.53 0.541 1.51 1.92 1.83 1.92 0.834 2.92-1.21 2.93-1.2 1.86-1.17 2.49 1.71 1.16-0.301 2.02 0.239 3.96 0.0232 2.46 2.3 4.66 0.88 1.49 2.12 0.965 0.517 2.97 0.587 1.86 5.2 0.0849 2.72 0.324 2.29 2.3 0.34 2.76-0.734 2.6-3.34 1.25-2.3 2.16-1.89 2.5-2.3 0.193-2.39 0.0618-1.25 1.41-1.77 3.79-1.81 0.587-1.07 1.37-0.193 2.68 1.16 1.88 3.75 0.656 2.66-0.116 2.18 0.124 2.24 0.61 0.27 1.95 0.78 1 1.58 0.718 1.27 0.95-1.55 1.74-0.0849 1.96 2.53-0.0695 1.2 3.4 2.09-0.0541 0.973 1.58-2.69 2.39-3.56-0.17-1 0.649-0.417 4.38 1.2 3.49-0.348 3.53 0.718 1.94 3.48 3.74 0.0772 2.8 0.734 2.61 2.02 2.44 1.03 0.417 2.73 0.819 4.62-0.124 2.7-0.517 2.48-0.332 0.718 2.07 1.5 1.25 2.24-2.51 1.76-2.32 1.45-2.18-1.24-2.95 1.1-1.85 3.44 0.487 2.53-0.332 4.66-0.17 2.53-1.85 3.48 2.18 4.12 1.44 2.44-0.0232 1.99-0.147 3.2 1.65 4.66-1.64 3.16 0.317 1.22 0.633 0.757 1.71-0.541 4.64 1.71 2.63 1.71 0.579 2.9-1.24 3.24 1.34-0.394 5.14 0.255 2.97 2.6 1.04 1.99 3.11 2.61 1.31 2.9 2.19 0.255 1.28 1.13 2.24 2.25-0.51 1.38 3.44 2.87 2.59 2.74-0.517 0.934-1.54 1.17-1.19 2.37 0.517 0.471 2.57 1.74 3.69 2.01 2.12 1.68 1.2 1.6 0.0927 1.75 0.749-1.55 3.38 0.0232 2.45 0.44 5.02 4 3.32 4.96 2.53 3.84 0.656 3.31-4.01 4.93 3.47 2.74 4.59 1.75 4.05 1.63 2.85 2.78 0.857 3.55 1.64 2.44 3.36 6.97 2.88 1.95 1.46 3.14-0.355 2.42-1.14 1.43-1.28 1.09-2.39 0.0541-3.07 2.16-2.19 1.2-3.24-0.209-1.24-0.904-2.11-3.11 0.0386-2.07-0.88-1.54-1.34 0.108-0.896 1.71-2.4 0.317-3.21-0.201-0.927 1.28-1.9 1.75-1.2 1.38-1.37 2.19-4.59 2.12-2.1 1.36-2.31 2.06-2.77 2.65 0.996 1.37 1.39 0.355 1.81 1.48-1.2 2.32-1.09 1.33-0.124 1.61 0.355 0.726-1.14 0.247-2.46 0.556-0.772 2.11-0.988 2.97 1.57 1.64 1.78 2.18 1.72 3.66 0.703 1.22 0.772 1.94 2.75 2.46 0.556 2.52-0.641 2.88-0.255 2.23 1.95 3.18 4.49 2.06 0.703 3.19 1.47 3.88 2.03 1.98 0.703 0.525 3.01-0.263 1.7 1.83 3.69-0.471 2.42 0.247 0.795 3.13 0.849 4.46 0.772 2.12 1.14 1.51 8.5 1.54 2.93 1.99 1.51 3.85 1.14-0.317-1.75 0.255 0.17 4.32-2.32 0.942-0.1 0.873 0.255 1.75 3.2 0.911 1.19 7.7 4.84 2.29 2.51 5.48 1.4 2.66 1.87 0.571 0.656 1.05 3.31 2.93 2.58 0.0849 1.58-0.255 0.873-4.45 2.37-1.03 2.03-1.51 1.9-0.95 0.564-5.24 1.07-0.772 0.34-1.2 1.32-1.07 0.386-3.94 0.564-1.07 0.386-1.25 0.795-1.74 1.96-0.317 1.17 0.278 0.71 2.01 1.98-0.0154 0.703-0.425 0.811-0.71 0.517-2.66 1.17-0.208 1.75-2.53 0.595-0.834 0.626 0.494 1.23-0.0541 0.564-0.494 0.687-8e-3 0.479 2.03 2.4 1 2.49 2.3 1.71 1.99 1.03 0.448 0.556 0.34 1.73 1.09 1.16 0.386 1.49 1.24 1.2 1.55 2.22 0.78 1.52-0.108 1.09-0.981 1.11 0.0772 0.44 0.726 0.803-0.0772 2.62 0.88 1.98 0.0232 0.934-0.487 1.21-1.2 1.09-0.409 0.672 0.672 3.58 0.0618 2.36-0.672 3.04-1.41 2.98-1.66 2.32-1.15 0.896-1.72 0.842-3.2 0.849-1.48 0.0154-1.09-0.324-1.57-0.0772-3.17 3.26-3.44 4.12-2.97 2.65-3.58 1.98-3.29 1.03-1.01 0.502-0.494 0.517-0.193 0.865 0.108 1.1 1.01 1.64 2.73 0.842 0.687 0.448 3.39 2.73 1.06 1.64 0.564 0.0541 2.11-0.741 3.48 0.942 1.6 0.857 0.293 0.618 0.348 2.36 0.548 1.19-0.263 4.49 2.32 1.35 1.16 1.2 0.286 3.14-0.394 2.39 2.57 6.68 0.131 4.45-0.826 4.21-0.131 2.89-0.162-0.209-0.981-0.0849-0.541-0.317-1.68-2.85 0.286-0.942-0.0463-1.32 0.209-0.232 0.71-0.0927 0.487-0.463 0.363-1.11 0.124-1.25-0.332-2.21-1.36-1.82-0.317-1.16-0.927-1.1-0.293-0.718-0.27-1.98-1.92-4.31-5.26-7.73-2.76-2.7-2.8-1.14-7.74-5.92-7.36-4.21-2-2.01-1.44-0.973-1.09-1.61-0.201-1.98 0.193-1.32 0.672-1.34 2.45-2.06 1.61-0.958 0.795-0.904 0.348-2.44 1.1-1.17 0.417-0.741-0.0541-0.649-1.35-2.61-1.42-2.1-4.1-4.7-0.734-2.63-0.726-1.1 0.409-0.0618 0.703 0.456 0.487 1.47 0.602 0.487 0.51-0.0927-0.193-0.618-0.432-0.317 0.0463-0.68 0.479-0.293 1.69 0.34 1.73-1.81 1.2 0.224 8e-3 -0.324-0.587-0.332-0.919-0.085-2.4 1.28-0.71-0.0154-0.834-0.726-0.664-1.14-1.01-0.355-0.571-0.487-3.58-4.86-0.216-1.13 1.2-2.29 0.68 0.286 0.348 1.4 0.502 0.417 0.911 0.255 0.0927 0.479-0.664 0.973 0.633 0.726-0.803 1.07 0.656 1.2 2.09-1.22 0.795-0.834 0.811 0.0463 0.571 0.386 0.525-0.741-0.0618-0.409-0.942-0.456-0.718 0.324-0.301-0.178-0.348-1.33-2.87-3.58-1.38-0.633-0.765-0.965-0.687 0.463-0.432-0.448-0.44-0.0386-0.278 0.27 0.0309 0.201 1.01 0.355 0.232 0.448 0.0541 0.849-0.317 0.641-0.51 0.232-0.51-0.0463-0.502-0.448-1.46-0.0927-0.873-0.726-0.718 0.293-0.641-0.147-0.232-0.239 0.317-0.602-0.131-0.378-0.571-0.247-2.07-0.0695-0.78 1.79-0.471-0.147-1.03-1.68-0.741-2.29-0.44-0.208-1.2 0.417-2.13-0.718-0.819 0.0849-1.1 0.795-1.93-2.42-0.61-0.317-1.02-0.116-0.502-0.247-0.293-0.587-0.88-0.324-0.34-0.309 0.487-0.602-0.456-1.37 0.425-1.01 0.054-1.02 0.857-0.664 0.224-1.42-0.942-0.494-0.757 0.734-0.479-8e-3 -0.332-0.448-0.849-0.154-0.934-1.17-0.641-0.147-0.348 0.44-1.29-0.394-1.46-0.124-0.232-0.139-0.116-1.16-0.301-0.209-0.587 0.363-0.0463 0.61-0.718 0.463-0.147 0.849-0.309 0.201-0.649-0.0463-0.0927-0.618-0.332-0.309-0.517 0.263-0.51-0.0772-1.39 1.88-1.34 0.865-1.13 0.255-0.811-0.185-0.255-0.919-2.21-0.0386-1.18-0.394-0.88 0.0232-0.216 0.44-0.448 0.263-0.911-0.154-0.873 1.31-0.193 1.49 0.324 0.819 0.541 0.247 0.656-0.633 0.641 0.0772 0.571 0.448 0.0927 0.409-0.633 1.18 0.402 0.417 0.517-0.432 0.579-0.0232 0.904 0.664 1.1 1.24 1.14 0.803 1.12 2.09-0.517 2.37 0.0927 0.849 0.626 0.471 0.309 0.664 0.672 0.687 1.68 1.35 1.67 1.93 1.27 1.11 1.01 0.564 0.95-0.0154 1.14 1.14 2.01-0.309 4.02 1.5 2.01 1.97 1.23 1.65 1.18 0.394 0.873 0.695 0.649-0.363 0.147-0.811 0.402 0.479 0.193 0.718-0.819 6 0.463 0.788 2.6 2.93-0.178 0.641-0.525 0.703-1.52 1.37 0.124 0.61 1.56 2.3 0.162 0.649-1.21 3.2 0.502 2.29-0.564 1.24-1.58 1.03-3.37-1.18-3.91-1.87-5.71-1.93-4.25-1.94-2.46-1.51-1.58-0.571-7.01-1.41-3.19-0.193-1.84 0.0386-3.24 0.525-0.209 0.201-0.942-0.355-1.54 0.448-0.95-0.154-3.66-2.67-0.386-1.4-1.13-1.48-1.91-1.76-3.13-1.81-5.71-6.38-4.78-4.93-1.59-0.471-0.193-0.51-0.649 0.293-0.556 0.571-0.494-0.788-0.448-1.85-1.3-1.95 0.0463-0.541 1.01-1.85 0.324-1.29 0.795-1.04 1.06-0.394 0.278-0.471 0.355-3.12 0.355-0.842 1.62-1.37 1.51-0.517 4.46-0.27 0.687-0.263 0.517-0.672 0.494-1.38-0.178-1.7 0.494-1.45 0.795-0.942 1.03-0.394 0.556-0.741-0.363-0.479-0.541-0.0772-0.417 0.471-0.309 0.0309-0.317-1.61 0.0154-0.95 0.247-0.61 0.348-0.332 1.7-0.0772 1.34-0.556 0.873-1.45 0.772 0.487 0.0386-0.409-0.795-1.37 0.208-0.162 2.12-0.27 1.47-0.448 1.18 0.425 1.17-0.904-0.324-0.958-0.27-0.178-0.618 0.332-0.116-1.33-0.239-8e-3 -0.278 0.51-0.324 1.18-0.687 0.263-2.35-0.0386-1.52-0.293-0.51 2.03-0.386 0.741-1.24 0.834-0.68-0.0772-1.94-2.07 3.7-3.95 0.757-0.363 0.556-0.741 0.888-0.293 0.826-0.703 0.556-0.942 1.58-0.448 1.82 0.911 1.05 0.0849 0.973 0.633 0.448-0.263-0.525-0.958-1.41-1.08-0.263-0.749 0.317-0.502 0.772 0.626 2.69-0.0618 0.857-0.255 1.32 0.432 0.965-0.525 0.0927 0.409-0.981 1.99-0.548 2.17-0.765 0.973-0.68 0.263-1.19 0.0154-0.857 0.533-0.324 0.95 0.0541 0.78-0.348 0.641-0.78-0.147-0.0772 0.309 0.27 0.34 0.61 0.348 0.718-0.224 0.51 0.0772 0.487-0.541-0.116-1.06 0.317-0.571 1.16-0.286 1.27-0.826 0.958-2.36-0.0463-1.29 0.456-0.981 0.579-0.193 0.703 0.525 0.378-0.0618 1.65-1.17 2.73-0.394 0.417-0.432-0.263-0.687-0.61-0.317-0.247 0.471-0.517 0.363h-1.97l-1.51 1.03-0.402-0.209-0.0618-0.61 0.834-0.973-0.471-0.386-0.927 0.463-0.71-0.147-0.996 0.834-1.69-0.541-1.71 0.378-1.08-0.425-0.734-0.865-0.61-0.0772-0.618 0.363-0.185 0.988 0.386 1.4-0.139 0.301-0.27-8e-3 -0.672-0.556-0.417-1.51-0.68-0.147-1.85-1.19-2.89 0.0232 0.988-2.19 0.124-1.62 1.04 0.757 1.48 0.633 3.94 0.61 0.981 0.494 0.502 0.618 1.35 0.502-0.378-1.81-0.911-0.595-0.293-0.618 0.626-0.973 0.548-0.0927 1.15 0.463 0.919-0.0541 0.147-0.68-0.402-0.448-1.26-0.154-1.06 0.154-1.31 0.726-0.595 1.25-0.548 0.471-2.49-1.58-0.448 0.131-1.35-0.463-0.541-0.417-0.263-0.857 0.108-0.301 0.533 0.687 1.42 0.363 0.904 0.765 0.71 0.0463 0.378-0.371-0.0309-0.409-2.67-0.757-0.34-0.247-0.255-0.958-0.301-0.209-0.571-0.178-1.45 1.14-0.548 0.0618-0.332-0.278-0.0309-0.44 0.386-0.641 1.83-1.57 0.425-0.88-0.162-0.68 0.409-2.41-0.154-1.26-0.795-1.51 0.0463-0.51-0.479-1.9-0.633-1.1-0.0232-0.749 0.324-1.02 0.517-0.232 1.8 0.0618 8e-3 -0.27-1.96-0.68-0.487-1.44 0.124-1.16 0.517-0.363 8e-3 -0.27-0.741-0.147-0.394-0.896-1.02-0.0849-0.571-0.278-1.27-1.72-1.18-0.664-0.626 0.672-0.61 0.0232-0.927-1.92-1.95-1.26 0.147-0.579-0.193-0.548-0.95-0.324-0.826-1.48-2.82-2.54-0.317-1.24-1.63-1.09-0.749-1.27-0.95-0.888-0.626-0.255-1.41 0.17-0.656 0.425-0.363 0.888-0.34-8e-3 -0.741-0.556 0.695-0.942-0.425-1.34-0.1-2.29-0.432-0.788-1.78-1.6-3-1.75-5.01-2.09-1.8-0.201-0.201-0.27 0.394-1.19-0.502-0.687-0.911-0.664-1.37-1.93-3.98-2.89-1.34-1.31 0.116-0.819-0.471-0.348-0.479 0.0618-0.417 0.471-2.87-2.09-0.154-0.919-0.34 0.0618-0.278 0.541-6.9-3.81-6.91-2.97-0.502-0.757 0.664-1.15-0.402-0.348-0.487 0.371-0.324 1.36-0.548-8e-3 -1.02-0.386-2.13-1.33-1.56-0.432-2.2-1.16-4.15-0.981-0.649 0.162-1.14 0.734-0.417-1.81-0.371-0.209-0.409 0.201-0.456 0.68-0.849-0.116-0.649 0.301-0.595-1.37-0.911-0.934-0.849-0.425-0.919-0.0849-0.718 0.263-0.61-0.0463 0.873-1.21 0.819 0.216 0.247-0.61-0.757-2.22 0.487-0.842-1.03-1.37-1.86-0.981-1.31-1.38-0.834-1.24-1.01-0.695-3.05-1.03-1.14-1.17-1.13-2.23-0.772-0.765-0.51-0.178-0.317 0.51 0.402 0.857 2.69 3.2 1.21 0.834 1.39 0.463 1.13 0.0463 0.409 0.247 0.193 0.718-0.247 0.34-0.849 0.0232-1.67-0.502-0.27-0.378-2.37-1.02-1.75-1.25-1.14-1.86-1.77-0.0618-1.49-0.757-0.927 0.17 0.502 0.571 0.44 0.178 2.36 0.409 0.471 0.348-8e-3 0.409-0.409 0.131-2.59-0.78-1.2-0.0154-0.34-0.309-2.18-0.162-0.34 0.131-1.32-0.904-0.579-0.147-0.471-0.417 0.309-0.371-0.0541-0.819-0.371-0.139-0.487 0.61-0.958 0.0541-0.108 0.239 0.232 0.448-0.208 0.1-7.95-1.85-0.741-0.656-0.417 0.402-1.7-0.224-0.649-0.286-0.263-0.996-0.541-0.209-0.587 0.571-0.888-0.0463-1.76-0.772-1.03-0.0463-2.2-0.88-1.43-0.224-0.865 0.1-1.12-0.425-0.247 0.51-6.32 1.07-1.48-1.72-0.332-0.687 0.795-0.942-0.332-0.687-1.58 0.556-1.04-0.934-0.371-0.0772 0.0695 0.517 0.587 0.602-0.201 0.185-1.28-1.14-0.232-0.517-0.618-8e-3 -1.79-1.56-3.59-2.09-0.51-0.417-1.17-1.89 0.185-1.06-0.942-1-0.193-0.718-0.502-0.726-0.34-0.0386-0.88-0.765-0.857 0.432-0.471-0.178-1.25-1.17-0.232-0.548 0.726-0.641 0.209-0.579-0.0618-0.548-0.772-0.865-0.919-0.386-1.58 0.425-0.27-0.309-0.0618-0.479 1.03-1.08-0.193-0.857 0.417-0.68-0.1-0.448-0.942-0.726 0.332-2.22 0.626-0.71 0.517-0.162 0.417-0.641 0.108-0.788 0.664-1.32 1.69-1.78 0.749-0.162 0.417-0.749 0.548-0.402 0.88-2.41-0.772-3.73-0.649-0.417-2.34-3.81-2.15-2.42-0.402-0.718-1.38-1.52-1.66-0.803-0.88-0.695-0.27-0.517 0.108-0.27 0.44 0.0695 0.278-0.232-0.934-1.41-4.02-3.23-0.0309-0.51 0.718-0.432 0.904-1.01 1.01-1.63-0.0618-0.479-1.83-1.39-1.65-1.76-0.564-1.51 0.255-1.57-0.301-0.618-0.51-0.517-0.819-0.317-2.09-0.0618-1.91-0.533-2.09 0.286-2.15-0.193-1.2 0.463h-2.97l-1.61 0.286-0.51-0.139-0.301-0.618 0.247-0.409 0.927-0.432 2.91-0.579-0.988-0.216-0.888 0.0927-2.42-0.88-1.52-1.21-4.14-2.54-1.25-1-2.44-1.64-0.749-0.0463-0.34-0.448 0.0772-0.68-1.41 0.324-1.95-2.96-0.849-0.386-0.649 0.162-2.08-0.641-0.239-0.348 0.278-0.34 0.757-0.301 0.68 8e-3 -0.471-0.757-0.263-1.24-0.571-0.795-1.53-0.772-1.57-0.224-1.26-0.595-2.56-2.9-1.09-0.934-2.24-1.01-1.43-0.934-0.579-0.0772-0.904 1.05-0.409 0.131-0.896-0.479-0.502-5.41 2.84-0.0772 3.42 1.87 7.77 3.09 3.2 1.92 1.95-0.0541 1.87-3.35-0.564-2.93 3.21-2.94 3-0.749-0.811-5.34 2.57-6.85 0.216-1.92 0.795-3.41 2.4-3.28 2.63-1.23 3.36 0.981z"/>
	<path title="San José" d="m296 159 1.28 3.22 1.7 7.35 1.64 1.38 3.05 1.17 2.32 2.12 1.08 2.25 0.108 2.45 0.425 2.57 1.03 2.15-0.68 1.36-2.64 0.834-1.08-0.463-1.34-0.409-1.25 1.37-1.52 1.29-2.65 0.517-2.19-0.425-6.37 0.842-1.01 0.556-0.162 2.32-1.85 2.19-2.18 1.53-0.209 2.19 2.43-0.332 1.47 0.0463 0.734 0.826-0.0154 1.2-0.633 1.35-0.672 1.31-0.78 0.911-2.09 3.14-0.409 1.3-1.54 0.842-2.87 2.18-2.76 1.37-0.88 0.201 0.232 2.04-0.672 1.41 1.58 0.803 2.4 0.154 2.56-0.602 1.87-0.1 3.93-2.38 1.1-0.471 1.38 3.61 1.76 2.71 3.72 1.64 0.108 2.27-0.185 1.47 0.556 0.826 1.56 0.139 1.58 1.02 0.471 1.01 0.765 0.386 1.32-0.664 2.23 2.21 1.17 0.595 1.61 0.224 0.741-0.425 2.5 0.425 0.649 1.14-0.0154 2.81 0.811 2.07 1.9 1.41 2.23 0.479 1.67 0.795 1.78 0.487 2.12 0.865 1.37-0.17-0.448 1.92 0.641 2.25 1.08 0.687 2.18 0.0695 0.664 1.63 1.75 0.44 3.05-0.749 1.84 0.888 2.36-1.54 0.849-1.63 1.09-0.919 1.59-0.224 1.84 0.664 1.75 2.05 1.53 0.71 3.65 2.26 2.77 0.68 2.07 0.834 4.81 4.1 3.28 1.51 2.46 2.2 1 4.6 1.56 3.74 3.09 6.32 3.48 2.51-2.06 2.77-1.36 2.31-2.12 2.1-2.19 4.59-1.39 1.37-1.75 1.2-1.28 1.9 0.201 0.934-0.309 3.21-1.71 2.4-0.108 0.896 1.54 1.34 2.06 0.88 3.11-0.0463 0.904 2.12 0.209 1.24-1.2 3.24-2.16 2.19-0.0541 3.07-1.09 2.39-1.44 1.28-2.41 1.14-3.14 0.348-1.95-1.46-6.96-2.88-2.45-3.36-3.55-1.64-2.78-0.857-1.63-2.85-1.75-4.05-2.74-4.59-4.93-3.47-3.32 4-3.84-0.656-4.95-2.53-4-3.32-0.44-5.01-0.0232-2.45 1.55-3.38-1.75-0.749-1.6-0.0927-1.68-1.2-2.01-2.13-1.75-3.69-0.471-2.56-2.36-0.517-1.17 1.19-0.934 1.54-2.74 0.517-2.87-2.59-1.38-3.43-2.25 0.502-1.13-2.24-0.255-1.28-2.9-2.19-2.61-1.31-1.99-3.11-2.6-1.04-0.263-2.97 0.402-5.14-3.24-1.34-2.9 1.24-1.71-0.579-1.71-2.63 0.548-4.64-0.757-1.72-1.22-0.633-3.16-0.317-4.66 1.64-3.2-1.64-1.99 0.139-2.44 0.0232-4.13-1.44-3.48-2.18-2.53 1.85-4.66 0.17-2.53 0.34-3.43-0.487-1.1 1.85 1.23 2.95-1.45 2.18-1.76 2.32-2.24 2.51-1.5-1.25-0.726-2.07-2.48 0.332-2.7 0.517-4.62 0.124-2.73-0.819-1.03-0.417-2.02-2.44-0.734-2.6-0.0772-2.8-3.48-3.74-0.718-1.94 0.355-3.53-1.2-3.49 0.417-4.38 1-0.649 3.56 0.17 2.69-2.39-0.973-1.58-2.09 0.0618-1.2-3.41-2.53 0.0695 0.0772-1.96 1.56-1.74 1.92-0.0232 2.09-3.22 0.371-1.21 1.68-2.19 2.03-0.587 2.33-2.34 1.22-0.88 2.11-0.988 0.819-0.873 2.1-1.34 2.05 0.116 5.96-1.23 0.0849-0.224 3.64 0.0309 2.02 0.525 2.43 1.49 3.6-0.139 3.61-1.17 5.85-0.471 2.5-0.965 2.14-1.66 1.07-1.24 1.52-1.33 2.19-0.996 1.74 0.0849 1.7 0.44 0.988 0.425 0.71 0.154 1.87 0.178 2.69-0.927 2.22 0.301 0.68 0.425 2.78-0.834 1.81-0.27 0.873-0.471 2.22 0.0309 2.24-0.911 2.36-1.41 1.89-2.19 0.788-2.21 0.386-2.24-1.85-2.66-0.834-1.5 0.371-0.942 0.1-1.3 0.633-1.27 2.62-0.162 1.76-0.402 1.25-1.59 0.224-5.04-0.0927-1.96 1.29-1.68 7.11-4.83-0.849 1.71z"/>
</svg>
